{
	"btnLargeFont":
	{
		"url": "media/fonts/Dosis-Bold.woff",
		"size": "20px",
		"fillStyle": "#FFF",
		"textAlign": "center",
		"fontOffsetX": 0,
		"fontOffsetY": -1,
		"padding": 5,
		"shadowColor": "#056173",
		"shadowOffsetX": 2,
		"shadowOffsetY": 2
	},
	"btnSmallFont":
	{
		"url": "media/fonts/Dosis-Bold.woff",
		"size": "18px",
		"fillStyle": "#FFF",
		"textAlign": "center",
		"fontOffsetX": 0,
		"fontOffsetY": -1,
		"padding": 5,
		"shadowColor": "#056173",
		"shadowOffsetX": 2,
		"shadowOffsetY": 2
	},
	"scoreFont":
	{
		"url": "media/fonts/Dosis-Bold.woff",
		"size": "24px",
		"fillStyle": "#000",
		"lineSpacing": 28,
		"textAlign": "center"
	},
	"scoreNumFont":
	{
		"url": "media/fonts/Dosis-Bold.woff",
		"size": "24px",
		"fillStyle": "#3764FA",
		"lineSpacing": 28,
		"textAlign": "center"
	}
}